{
  "decimalSeparator": "and",
  "values": {
    "1000000000000": {
      "one": "one trillion",
      "many": "trillions"
    },
    "1000000000": {
      "one": "one billion",
      "many": "billions"
    },
    "1000000": {
      "one": "one million",
      "many": "millions"
    },
    "1000": {
      "one": "one thousand",
      "many": "thousand"
    },
    "100": {
      "one": "one hundred",
      "many": "hundred"
    },
    "90": {
      "one": "ninety"
    },
    "80": {
      "one": "eighty"
    },
    "70": {
      "one": "seventy"
    },
    "60": {
      "one": "sixty"
    },
    "50": {
      "one": "fifty"
    },
    "40": {
      "one": "forty"
    },
    "30": {
      "one": "thirty"
    },
    "20": {
      "one": "twenty"
    },
    "19": {
      "one": "nineteen"
    },
    "18": {
      "one": "eighteen"
    },
    "17": {
      "one": "seventeen"
    },
    "16": {
      "one": "sixteen"
    },
    "15": {
      "one": "fifteen"
    },
    "14": {
      "one": "fourteen"
    },
    "13": {
      "one": "thirteen"
    },
    "12": {
      "one": "twelve"
    },
    "11": {
      "one": "eleven"
    },
    "10": {
      "one": "ten"
    },
    "9": {
      "one": "nine"
    },
    "8": {
      "one": "eight"
    },
    "7": {
      "one": "seven"
    },
    "6": {
      "one": "six"
    },
    "5": {
      "one": "five"
    },
    "4": {
      "one": "four"
    },
    "3": {
      "one": "three"
    },
    "2": {
      "one": "two"
    },
    "1": {
      "one": "one"
    },
    "0": {
      "one": "zero"
    },
    "0.0000001": {
      "one": "one millionth",
      "many": "millionths"
    },
    "0.000001": {
      "one": "one hundred-thousandth",
      "many": "hundred-thousandths"
    },
    "0.0001": {
      "one": "ten-thousandths",
      "many": "ten-thousandths"
    },
    "0.001": {
      "one": "one thousandth",
      "many": "thousandths"
    },
    "0.01": {
      "one": "one hundredth",
      "many": "hundredths"
    },
    "0.1": {
      "one": "one tenth",
      "many": "tenths"
    }
  },
  "dictionary": {
      "/twenty\\s(\\w+)/": "twenty-$1",
      "/thirty\\s(\\w+)/": "thirty-$1",
      "/forty\\s(\\w+)/": "forty-$1",
      "/fifty\\s(\\w+)/": "fifty-$1",
      "/sixty\\s(\\w+)/": "sixty-$1",
      "/seventy\\s(\\w+)/": "seventy-$1",
      "/eighty\\s(\\w+)/": "eighty-$1",
      "/ninety\\s(\\w+)/": "ninety-$1",
      "/ty\\-(tenths)/": "ty $1",
      "/ty\\-(hundredths)/": "ty $1",
      "/ty\\-(thousandths)/": "ty $1",
      "/ty\\-(ten\\-thousandths)/": "ty $1",
      "/ty\\-(hundred\\-thousandths)/": "ty $1",
      "/ty\\-(millionths)/": "ty $1"
  }
}